Statistical Analysis
…
linear_fit_1a =  asthma_df %>%
  lm(asthma ~ mental_health + physical_health + sex + smoker + race + age + income + county + aqi, data = .)

linear_fit_1a =
  linear_fit_1a %>% 
  broom::tidy()

fit_linear1b = 
  asthma_df %>% 
  lm(asthma_attack ~ mental_health + physical_health + sex + smoker + race + age + income + county + aqi, data = .) 

fit_linear1b %>% 
  broom::tidy()

## # A tibble: 57 × 5
##    term            estimate std.error statistic    p.value
##    <chr>              <dbl>     <dbl>     <dbl>      <dbl>
##  1 (Intercept)      0.706     0.152       4.63  0.00000443
##  2 mental_health    0.00558   0.00230     2.42  0.0158    
##  3 physical_health  0.00461   0.00216     2.14  0.0330    
##  4 sex             -0.111     0.0428     -2.58  0.00999   
##  5 smoker2          0.223     0.0869      2.57  0.0104    
##  6 smoker3          0.109     0.0637      1.71  0.0886    
##  7 smoker4          0.0673    0.0587      1.15  0.252     
##  8 race2           -0.117     0.0688     -1.70  0.0898    
##  9 race3           -0.229     0.143      -1.60  0.109     
## 10 race4           -0.413     0.503      -0.821 0.412     
## # … with 47 more rows
…
